[
  {
    "category": "General",
    "questions": [
      {
        "question": "What is your company about?",
        "answer": "Our company is dedicated to providing innovative solutions in..."
      },
      {
        "question": "How can I contact customer support?",
        "answer": "You can contact our support team by emailing support@company.com or calling our helpline at +1-XXX-XXXX."
      },
      {
        "question": "Where is your company located?",
        "answer": "Our main office is located at [Address], and we have additional offices in [Locations]."
      },
      {
        "question": "What industries do you serve?",
        "answer": "We cater to a diverse range of industries, including [Industry1], [Industry2], and [Industry3]."
      },
      {
        "question": "Is your company publicly traded?",
        "answer": "Yes, our company is publicly traded on [Stock Exchange]. You can find our stock under the symbol [Symbol]."
      },
      {
        "question": "Do you have job openings?",
        "answer": "Yes, we regularly post job openings on our careers page at careers.company.com. Check for the latest opportunities."
      },
      {
        "question": "What is your mission statement?",
        "answer": "Our mission is to [Mission Statement]. We aim to [Company Values and Goals]."
      },
      {
        "question": "Are you involved in any charitable activities?",
        "answer": "Yes, we are committed to giving back to the community. Learn more about our charitable initiatives on our website."
      },
      {
        "question": "How can I stay updated on company news?",
        "answer": "You can stay informed about company news by subscribing to our newsletter and following us on social media platforms like Twitter, LinkedIn, and Facebook."
      },
      {
        "question": "Do you offer internships?",
        "answer": "Yes, we have internship programs for students. Check our careers page for information on available internships."
      },
      {
        "question": "What languages does your website support?",
        "answer": "Our website supports multiple languages, including English, Spanish, French, German, and Chinese. You can select your preferred language in the website settings."
      },
      {
        "question": "How can I provide feedback about your products or services?",
        "answer": "We value your feedback. You can share your thoughts by filling out the feedback form on our website or contacting our customer support team."
      },
      {
        "question": "Is there a customer loyalty program?",
        "answer": "Yes, we have a customer loyalty program that offers exclusive benefits and discounts. You can sign up for the program on our website."
      },
      {
        "question": "What awards has your company received?",
        "answer": "We have received several awards for excellence in [Industry/Area]. Visit our awards page to see the recognition we have received."
      },
      {
        "question": "Can I visit your office for a tour?",
        "answer": "We welcome visitors for office tours. Contact our front desk to schedule a tour of our facilities."
      }
    ]
  },
  {
    "category": "Account Management",
    "questions": [
      {
        "question": "How can I reset my password?",
        "answer": "To reset your password, go to the login page and click on the 'Forgot Password' link. Follow the instructions sent to your registered email to set a new password."
      },
      {
        "question": "Can I change my email address associated with the account?",
        "answer": "Yes, you can update your email address in the 'Account Settings' section after logging into your account."
      },
      {
        "question": "What should I do if I forget my username?",
        "answer": "If you forget your username, you can use the 'Forgot Username' option on the login page. Follow the instructions to recover your username."
      },
      {
        "question": "Is there a way to update my account information?",
        "answer": "Yes, you can update your account information, including personal details and preferences, in the 'Account Settings' section."
      },
      {
        "question": "Can I customize my account profile?",
        "answer": "Yes, you can personalize your account profile by adding a profile picture, updating your bio, and adjusting other profile settings in the 'Profile' section."
      },
      {
        "question": "How do I deactivate or close my account?",
        "answer": "To deactivate or close your account, please contact our customer support team. They will guide you through the account closure process."
      },
      {
        "question": "What security measures are in place to protect my account?",
        "answer": "We implement advanced security measures, including encryption and multi-factor authentication, to safeguard your account. You can enable these features in the 'Security' section."
      },
      {
        "question": "Can I have multiple accounts with the same email address?",
        "answer": "No, each account must have a unique email address associated with it. If you need multiple accounts, use different email addresses for each."
      },
      {
        "question": "How do I change my account password?",
        "answer": "You can change your account password by navigating to the 'Password' section in 'Account Settings.' Follow the prompts to set a new password."
      },
      {
        "question": "Is my payment information secure in my account?",
        "answer": "Yes, we prioritize the security of your payment information. It is encrypted and stored securely. You can review and update payment details in the 'Billing' section."
      },
      {
        "question": "What should I do if I suspect unauthorized access to my account?",
        "answer": "If you suspect unauthorized access, change your password immediately and contact our support team. They will assist in securing your account."
      },
      {
        "question": "Can I link multiple accounts together?",
        "answer": "No, at the moment, we do not support linking multiple accounts together. Each account operates independently."
      },
      {
        "question": "How do I set up two-factor authentication for my account?",
        "answer": "You can enable two-factor authentication in the 'Security' section of your account settings. Follow the instructions to set up and configure 2FA."
      },
      {
        "question": "What information is visible to other users on my profile?",
        "answer": "By default, only essential information is visible to other users. You can adjust privacy settings in the 'Profile' section to control what information is shared."
      },
      {
        "question": "Is there a limit to the number of devices I can link to my account?",
        "answer": "Yes, there may be limits on the number of devices you can link to your account. Check the 'Device Management' section for information on linked devices."
      }
    ]
  }
]
